created_at,entry_id,field1
2018-12-27 07:10:14 UTC,40,2499
2018-12-27 07:10:50 UTC,41,19
2018-12-27 07:11:27 UTC,42,16
2018-12-27 07:12:04 UTC,43,24
2018-12-27 07:12:31 UTC,44,2500
2018-12-27 07:12:58 UTC,45,2498
2018-12-27 07:13:25 UTC,46,2500
2018-12-27 07:13:51 UTC,47,2499
2018-12-27 07:14:18 UTC,48,2501
2018-12-27 07:14:45 UTC,49,2498
2018-12-27 07:15:14 UTC,50,2497
2018-12-27 07:15:41 UTC,51,2498
2018-12-27 07:16:08 UTC,52,2498
2018-12-27 07:16:46 UTC,53,0
2018-12-27 07:17:13 UTC,54,2491
2018-12-27 07:17:50 UTC,55,23
2018-12-27 07:18:17 UTC,56,2487
2018-12-27 07:18:44 UTC,57,2487
2018-12-27 07:19:11 UTC,58,2488
2018-12-27 07:19:40 UTC,59,2488
2018-12-27 07:20:07 UTC,60,2487
2018-12-27 07:20:34 UTC,61,2487
2018-12-27 07:21:01 UTC,62,2488
2018-12-27 07:21:28 UTC,63,2487
2018-12-27 07:21:54 UTC,64,2487
2018-12-27 07:22:21 UTC,65,2487
2018-12-27 07:22:48 UTC,66,2487
2018-12-27 07:23:15 UTC,67,2489
2018-12-27 07:23:41 UTC,68,2486
2018-12-27 07:24:09 UTC,69,2485
2018-12-27 07:24:36 UTC,70,2489
2018-12-27 07:25:03 UTC,71,2487
2018-12-27 07:25:30 UTC,72,2485
2018-12-27 07:25:57 UTC,73,2483
2018-12-27 07:26:23 UTC,74,2484
2018-12-27 07:26:50 UTC,75,2484
2018-12-27 07:27:17 UTC,76,2483
2018-12-27 07:27:44 UTC,77,2485
2018-12-27 07:28:21 UTC,78,28
2018-12-27 07:28:58 UTC,79,35
2018-12-27 07:29:24 UTC,80,52
2018-12-27 07:29:51 UTC,81,2520
2018-12-27 07:30:19 UTC,82,2525
2018-12-27 07:30:56 UTC,83,11
2018-12-27 07:31:33 UTC,84,7
2018-12-27 07:32:10 UTC,85,48
2018-12-27 07:33:22 UTC,86,41
2018-12-27 07:33:49 UTC,87,2503
2018-12-27 07:34:15 UTC,88,2499
2018-12-27 07:34:52 UTC,89,29
2018-12-27 07:35:29 UTC,90,3
2018-12-27 07:38:21 UTC,91,0
2018-12-27 07:38:48 UTC,92,2545
2018-12-27 07:39:14 UTC,93,2547
2018-12-27 07:40:40 UTC,94,2499
2018-12-27 07:41:06 UTC,95,2500
2018-12-27 07:41:33 UTC,96,2499
2018-12-27 07:41:59 UTC,97,2499
2018-12-27 07:42:25 UTC,98,2496
2018-12-27 07:42:52 UTC,99,2498
2018-12-27 07:43:18 UTC,100,2498
2018-12-27 07:43:45 UTC,101,2498
2018-12-27 07:44:11 UTC,102,2498
2018-12-27 07:44:37 UTC,103,2523
2018-12-27 07:45:03 UTC,104,2527
2018-12-27 07:46:06 UTC,105,2500
2018-12-27 07:46:32 UTC,106,61
2018-12-27 07:47:09 UTC,107,4
2018-12-27 07:47:36 UTC,108,2500
2018-12-27 07:48:12 UTC,109,48
2018-12-27 07:48:38 UTC,110,58
2018-12-27 07:49:05 UTC,111,2511
2018-12-27 07:49:31 UTC,112,2517
2018-12-27 07:49:59 UTC,113,2514
2018-12-27 07:50:25 UTC,114,2503
2018-12-27 07:51:01 UTC,115,2
2018-12-27 07:51:27 UTC,116,51
2018-12-27 07:51:54 UTC,117,2499
2018-12-27 07:52:30 UTC,118,45
2018-12-27 07:52:57 UTC,119,2499
2018-12-27 07:53:23 UTC,120,2461
2018-12-27 07:54:02 UTC,121,0
2018-12-27 07:54:41 UTC,122,0
2018-12-27 07:55:20 UTC,123,0
2018-12-27 08:10:32 UTC,124,0
2018-12-27 08:12:03 UTC,125,0
2018-12-28 09:36:36 UTC,126,0
2018-12-28 09:37:02 UTC,127,2239
2018-12-28 09:37:28 UTC,128,2244
2018-12-28 09:37:55 UTC,129,2245
2018-12-28 09:38:21 UTC,130,2246
2018-12-28 09:38:47 UTC,131,2248
2018-12-28 09:39:23 UTC,132,4
2018-12-28 09:40:00 UTC,133,5
2018-12-28 09:40:26 UTC,134,53
2018-12-28 09:40:52 UTC,135,2244
2018-12-28 09:41:18 UTC,136,2247
2018-12-28 09:41:44 UTC,137,2247
2018-12-28 09:42:10 UTC,138,2245
2018-12-28 09:42:37 UTC,139,2242
